…
Looks like the original plots the types of expenses so we should `pivot_longer()`


```r
income %>%
  pivot_longer(Rent:Other, names_to = "Expense", values_to = "Percent_of_Income")
```

```
## # A tibble: 35 x 4
##    Class    `Actual Average` Expense Percent_of_Income
##    <chr>               <dbl> <chr>               <dbl>
##  1 $100-200             139. Rent                 19  
##  2 $100-200             139. Food                 43  
##  3 $100-200             139. Clothes              28  
##  4 $100-200             139. Tax                   9.9
##  5 $100-200             139. Other                NA  
##  6 $200-300             249. Rent                 22  
##  7 $200-300             249. Food                 47  
##  8 $200-300             249. Clothes              23  
##  9 $200-300             249. Tax                   4  
## 10 $200-300             249. Other                 4  
## # … with 25 more rows
```
…
Change the order of the expenses and the class to match those in the original


```r
income %>%
  pivot_longer(Rent:Other, names_to = "Expense", values_to = "Percent_of_Income") %>%
  mutate(Expense = factor(Expense, levels = c("Other", "Tax", "Clothes", "Food", "Rent"))) %>%
  mutate(Class = factor(Class, levels = c("$100-200", "$200-300", "$300-400", "$400-500", "$500-750", "$750-1000", "Over $1000"))) %>%
  arrange(Class, desc(Expense))
```

```
## # A tibble: 35 x 4
##    Class    `Actual Average` Expense Percent_of_Income
##    <fct>               <dbl> <fct>               <dbl>
##  1 $100-200             139. Rent                 19  
##  2 $100-200             139. Food                 43  
##  3 $100-200             139. Clothes              28  
##  4 $100-200             139. Tax                   9.9
##  5 $100-200             139. Other                NA  
##  6 $200-300             249. Rent                 22  
##  7 $200-300             249. Food                 47  
##  8 $200-300             249. Clothes              23  
##  9 $200-300             249. Tax                   4  
## 10 $200-300             249. Other                 4  
## # … with 25 more rows
```
…
Add annotations in each segment. To do so, replace NA in Percent of Income variable with 0 first


```r
income %>%
  pivot_longer(Rent:Other, names_to = "Expense", values_to = "Percent_of_Income") %>%
  mutate(Expense = factor(Expense, levels = c("Other", "Tax", "Clothes", "Food", "Rent"))) %>%
  mutate(Class = factor(Class, levels = c("$100-200", "$200-300", "$300-400", "$400-500", "$500-750", "$750-1000", "Over $1000"))) %>%
  arrange(Class, desc(Expense)) %>%
  mutate(Percent_of_Income = replace_na(Percent_of_Income, 0))
```

```
## # A tibble: 35 x 4
##    Class    `Actual Average` Expense Percent_of_Income
##    <fct>               <dbl> <fct>               <dbl>
##  1 $100-200             139. Rent                 19  
##  2 $100-200             139. Food                 43  
##  3 $100-200             139. Clothes              28  
##  4 $100-200             139. Tax                   9.9
##  5 $100-200             139. Other                 0  
##  6 $200-300             249. Rent                 22  
##  7 $200-300             249. Food                 47  
##  8 $200-300             249. Clothes              23  
##  9 $200-300             249. Tax                   4  
## 10 $200-300             249. Other                 4  
## # … with 25 more rows
```
…
Add the lines connecting each portion of the bar and finalize details (background color, title, etc.)


```r
plotdata <- income %>%
  pivot_longer(Rent:Other, names_to = "Expense", values_to = "Percent_of_Income") %>%
  mutate(Expense = factor(Expense, levels = c("Other", "Tax", "Clothes", "Food", "Rent"))) %>%
  mutate(Class = factor(Class, levels = c("$100-200", "$200-300", "$300-400", "$400-500", "$500-750", "$750-1000", "Over $1000"))) %>%
  arrange(Class, desc(Expense)) %>%
  mutate(Percent_of_Income = replace_na(Percent_of_Income, 0)) 
plotdata
```

```
## # A tibble: 35 x 4
##    Class    `Actual Average` Expense Percent_of_Income
##    <fct>               <dbl> <fct>               <dbl>
##  1 $100-200             139. Rent                 19  
##  2 $100-200             139. Food                 43  
##  3 $100-200             139. Clothes              28  
##  4 $100-200             139. Tax                   9.9
##  5 $100-200             139. Other                 0  
##  6 $200-300             249. Rent                 22  
##  7 $200-300             249. Food                 47  
##  8 $200-300             249. Clothes              23  
##  9 $200-300             249. Tax                   4  
## 10 $200-300             249. Other                 4  
## # … with 25 more rows
```

```r
# create cumsum column and make cumsum NA for Other
plotdata <- plotdata %>%
  group_by(Class) %>%
  mutate(Cumulative_perc = cumsum(Percent_of_Income)) %>% ungroup() %>%
  mutate(Cumulative_perc = ifelse(Expense == "Other", NA, Cumulative_perc))

# take a look
plotdata
```

```
## # A tibble: 35 x 5
##    Class    `Actual Average` Expense Percent_of_Income Cumulative_perc
##    <fct>               <dbl> <fct>               <dbl>           <dbl>
##  1 $100-200             139. Rent                 19              19  
##  2 $100-200             139. Food                 43              62  
##  3 $100-200             139. Clothes              28              90  
##  4 $100-200             139. Tax                   9.9            99.9
##  5 $100-200             139. Other                 0              NA  
##  6 $200-300             249. Rent                 22              22  
##  7 $200-300             249. Food                 47              69  
##  8 $200-300             249. Clothes              23              92  
##  9 $200-300             249. Tax                   4              96  
## 10 $200-300             249. Other                 4              NA  
## # … with 25 more rows
```
…
